%!PS-Adobe-3.0
%%Creator: graphviz version 2.40.1 (20161225.0304)
%%Title: G
%%Pages: (atend)
%%BoundingBox: (atend)
%%EndComments
save
%%BeginProlog
/DotDict 200 dict def
DotDict begin

/setupLatin1 {
mark
/EncodingVector 256 array def
 EncodingVector 0

ISOLatin1Encoding 0 255 getinterval putinterval
EncodingVector 45 /hyphen put

% Set up ISO Latin 1 character encoding
/starnetISO {
        dup dup findfont dup length dict begin
        { 1 index /FID ne { def }{ pop pop } ifelse
        } forall
        /Encoding EncodingVector def
        currentdict end definefont
} def
/Times-Roman starnetISO def
/Times-Italic starnetISO def
/Times-Bold starnetISO def
/Times-BoldItalic starnetISO def
/Helvetica starnetISO def
/Helvetica-Oblique starnetISO def
/Helvetica-Bold starnetISO def
/Helvetica-BoldOblique starnetISO def
/Courier starnetISO def
/Courier-Oblique starnetISO def
/Courier-Bold starnetISO def
/Courier-BoldOblique starnetISO def
cleartomark
} bind def

%%BeginResource: procset graphviz 0 0
/coord-font-family /Times-Roman def
/default-font-family /Times-Roman def
/coordfont coord-font-family findfont 8 scalefont def

/InvScaleFactor 1.0 def
/set_scale {
       dup 1 exch div /InvScaleFactor exch def
       scale
} bind def

% styles
/solid { [] 0 setdash } bind def
/dashed { [9 InvScaleFactor mul dup ] 0 setdash } bind def
/dotted { [1 InvScaleFactor mul 6 InvScaleFactor mul] 0 setdash } bind def
/invis {/fill {newpath} def /stroke {newpath} def /show {pop newpath} def} bind def
/bold { 2 setlinewidth } bind def
/filled { } bind def
/unfilled { } bind def
/rounded { } bind def
/diagonals { } bind def
/tapered { } bind def

% hooks for setting color 
/nodecolor { sethsbcolor } bind def
/edgecolor { sethsbcolor } bind def
/graphcolor { sethsbcolor } bind def
/nopcolor {pop pop pop} bind def

/beginpage {	% i j npages
	/npages exch def
	/j exch def
	/i exch def
	/str 10 string def
	npages 1 gt {
		gsave
			coordfont setfont
			0 0 moveto
			(\() show i str cvs show (,) show j str cvs show (\)) show
		grestore
	} if
} bind def

/set_font {
	findfont exch
	scalefont setfont
} def

% draw text fitted to its expected width
/alignedtext {			% width text
	/text exch def
	/width exch def
	gsave
		width 0 gt {
			[] 0 setdash
			text stringwidth pop width exch sub text length div 0 text ashow
		} if
	grestore
} def

/boxprim {				% xcorner ycorner xsize ysize
		4 2 roll
		moveto
		2 copy
		exch 0 rlineto
		0 exch rlineto
		pop neg 0 rlineto
		closepath
} bind def

/ellipse_path {
	/ry exch def
	/rx exch def
	/y exch def
	/x exch def
	matrix currentmatrix
	newpath
	x y translate
	rx ry scale
	0 0 1 0 360 arc
	setmatrix
} bind def

/endpage { showpage } bind def
/showpage { } def

/layercolorseq
	[	% layer color sequence - darkest to lightest
		[0 0 0]
		[.2 .8 .8]
		[.4 .8 .8]
		[.6 .8 .8]
		[.8 .8 .8]
	]
def

/layerlen layercolorseq length def

/setlayer {/maxlayer exch def /curlayer exch def
	layercolorseq curlayer 1 sub layerlen mod get
	aload pop sethsbcolor
	/nodecolor {nopcolor} def
	/edgecolor {nopcolor} def
	/graphcolor {nopcolor} def
} bind def

/onlayer { curlayer ne {invis} if } def

/onlayers {
	/myupper exch def
	/mylower exch def
	curlayer mylower lt
	curlayer myupper gt
	or
	{invis} if
} def

/curlayer 0 def

%%EndResource
%%EndProlog
%%BeginSetup
14 default-font-family set_font
% /arrowlength 10 def
% /arrowwidth 5 def

% make sure pdfmark is harmless for PS-interpreters other than Distiller
/pdfmark where {pop} {userdict /pdfmark /cleartomark load put} ifelse
% make '<<' and '>>' safe on PS Level 1 devices
/languagelevel where {pop languagelevel}{1} ifelse
2 lt {
    userdict (<<) cvn ([) cvn load put
    userdict (>>) cvn ([) cvn load put
} if

%%EndSetup
setupLatin1
%%Page: 1 1
%%PageBoundingBox: 36 36 324 315
%%PageOrientation: Portrait
0 0 1 beginpage
gsave
36 36 288 279 boxprim clip newpath
0.882103 0.882103 set_scale 0 rotate 44.8116 44.8116 translate
% main
gsave
1 setlinewidth
0 0 0 nodecolor
newpath 159.0467 307.7401 moveto
105.0467 307.7401 lineto
105.0467 271.7401 lineto
159.0467 271.7401 lineto
closepath stroke
0 0 0 nodecolor
14 /Times-Roman set_font
114.0467 286.0401 moveto 36 (main) alignedtext
grestore
% parse
gsave
1 setlinewidth
0 0 0 nodecolor
132.0467 216.7401 36.2938 18 ellipse_path stroke
0 0 0 nodecolor
14 /Times-Roman set_font
112.0467 213.0401 moveto 40 (parse) alignedtext
grestore
% main->parse
gsave
1 setlinewidth
0 0 0 edgecolor
newpath 132.0467 271.6952 moveto
132.0467 263.623 132.0467 253.9165 132.0467 244.9219 curveto
stroke
0 0 0 edgecolor
newpath 135.5468 244.8304 moveto
132.0467 234.8305 lineto
128.5468 244.8305 lineto
closepath fill
1 setlinewidth
solid
0 0 0 edgecolor
newpath 135.5468 244.8304 moveto
132.0467 234.8305 lineto
128.5468 244.8305 lineto
closepath stroke
grestore
% init
gsave
1 setlinewidth
0 0 0 nodecolor
209.0467 162.7401 27 18 ellipse_path stroke
0 0 0 nodecolor
14 /Times-Roman set_font
196.5467 159.0401 moveto 25 (init) alignedtext
grestore
% main->init
gsave
1 setlinewidth
dotted
0 0 0 edgecolor
newpath 149.2026 271.3414 moveto
158.2161 261.0776 169.0247 247.7665 177.0467 234.7401 curveto
185.7623 220.5875 193.4134 203.6493 199.0471 189.7582 curveto
stroke
0 0 0 edgecolor
newpath 202.3776 190.8524 moveto
202.779 180.2652 lineto
195.8629 188.2912 lineto
closepath fill
1 setlinewidth
solid
0 0 0 edgecolor
newpath 202.3776 190.8524 moveto
202.779 180.2652 lineto
195.8629 188.2912 lineto
closepath stroke
grestore
% cleanup
gsave
1 setlinewidth
0 0 0 nodecolor
271.0467 216.7401 47.3916 18 ellipse_path stroke
0 0 0 nodecolor
14 /Times-Roman set_font
242.5467 213.0401 moveto 57 (cleanup) alignedtext
grestore
% main->cleanup
gsave
1 setlinewidth
0 0 0 edgecolor
newpath 159.1253 278.1451 moveto
174.3007 271.4234 193.4553 262.5646 210.0467 253.7401 curveto
219.3146 248.8108 229.1316 243.0901 238.1184 237.6423 curveto
stroke
0 0 0 edgecolor
newpath 240.0874 240.5404 moveto
246.7773 232.3248 lineto
236.4242 234.5754 lineto
closepath fill
1 setlinewidth
solid
0 0 0 edgecolor
newpath 240.0874 240.5404 moveto
246.7773 232.3248 lineto
236.4242 234.5754 lineto
closepath stroke
grestore
% printf
gsave
1 setlinewidth
0 0 0 nodecolor
37.0467 26.8701 37.0935 18 ellipse_path stroke
0 0 0 nodecolor
14 /Times-Roman set_font
16.5467 23.1701 moveto 41 (printf) alignedtext
grestore
% main->printf
gsave
2 setlinewidth
bold
0 1 1 edgecolor
newpath 114.2942 271.5314 moveto
95.8427 251.2692 68.0197 216.6294 56.0467 180.7401 curveto
41.9503 138.4859 38.1391 86.5615 37.2062 55.1266 curveto
stroke
0 1 1 edgecolor
newpath 40.7007 54.8332 moveto
36.9841 44.9117 lineto
33.7024 54.9854 lineto
closepath fill
2 setlinewidth
solid
0 1 1 edgecolor
newpath 40.7007 54.8332 moveto
36.9841 44.9117 lineto
33.7024 54.9854 lineto
closepath stroke
0 0 0 edgecolor
14 /Times-Roman set_font
56.0467 159.0401 moveto 72 (100 times) alignedtext
grestore
% execute
gsave
1 setlinewidth
0 0 0 nodecolor
132.0467 108.7401 47.3916 18 ellipse_path stroke
0 0 0 nodecolor
14 /Times-Roman set_font
103.5467 105.0401 moveto 57 (execute) alignedtext
grestore
% parse->execute
gsave
1 setlinewidth
0 0 0 edgecolor
newpath 132.0467 198.4194 moveto
132.0467 181.5611 132.0467 156.3052 132.0467 136.8871 curveto
stroke
0 0 0 edgecolor
newpath 135.5468 136.7902 moveto
132.0467 126.7903 lineto
128.5468 136.7903 lineto
closepath fill
1 setlinewidth
solid
0 0 0 edgecolor
newpath 135.5468 136.7902 moveto
132.0467 126.7903 lineto
128.5468 136.7903 lineto
closepath stroke
grestore
% make_string
gsave
1 setlinewidth
0 0 0 nodecolor
238.0467 26.8701 48.1667 26.7407 ellipse_path stroke
0 0 0 nodecolor
14 /Times-Roman set_font
212.0467 30.6701 moveto 52 (make a) alignedtext
0 0 0 nodecolor
14 /Times-Roman set_font
214.0467 15.6701 moveto 48 ( string) alignedtext
grestore
% execute->make_string
gsave
1 setlinewidth
0 0 0 edgecolor
newpath 152.9889 92.5652 moveto
166.7585 81.9301 185.1524 67.7234 201.3124 55.2422 curveto
stroke
0 0 0 edgecolor
newpath 203.7482 57.7833 moveto
209.523 48.9006 lineto
199.4693 52.2433 lineto
closepath fill
1 setlinewidth
solid
0 0 0 edgecolor
newpath 203.7482 57.7833 moveto
209.523 48.9006 lineto
199.4693 52.2433 lineto
closepath stroke
grestore
% execute->printf
gsave
1 setlinewidth
0 0 0 edgecolor
newpath 112.822 92.1725 moveto
98.5095 79.8381 78.812 62.8629 63.0872 49.3115 curveto
stroke
0 0 0 edgecolor
newpath 65.1359 46.4566 moveto
55.2758 42.5797 lineto
60.5661 51.7593 lineto
closepath fill
1 setlinewidth
solid
0 0 0 edgecolor
newpath 65.1359 46.4566 moveto
55.2758 42.5797 lineto
60.5661 51.7593 lineto
closepath stroke
grestore
% compare
gsave
0.7 0.3 1 nodecolor
newpath 171.5467 44.8701 moveto
92.5467 44.8701 lineto
92.5467 8.8701 lineto
171.5467 8.8701 lineto
closepath fill
1 setlinewidth
filled
0.7 0.3 1 nodecolor
newpath 171.5467 44.8701 moveto
92.5467 44.8701 lineto
92.5467 8.8701 lineto
171.5467 8.8701 lineto
closepath stroke
0 0 0 nodecolor
14 /Times-Roman set_font
100.5467 23.1701 moveto 63 (compare) alignedtext
grestore
% execute->compare
gsave
1 setlinewidth
0 1 1 edgecolor
newpath 132.0467 90.5705 moveto
132.0467 80.1831 132.0467 66.928 132.0467 55.2018 curveto
stroke
0 1 1 edgecolor
newpath 135.5468 54.9889 moveto
132.0467 44.9889 lineto
128.5468 54.9889 lineto
closepath fill
1 setlinewidth
solid
0 1 1 edgecolor
newpath 135.5468 54.9889 moveto
132.0467 44.9889 lineto
128.5468 54.9889 lineto
closepath stroke
grestore
% init->make_string
gsave
1 setlinewidth
0 0 0 edgecolor
newpath 212.8977 144.6976 moveto
217.2911 124.1138 224.5914 89.9108 230.1979 63.6429 curveto
stroke
0 0 0 edgecolor
newpath 233.6658 64.1625 moveto
232.3304 53.6521 lineto
226.82 62.7013 lineto
closepath fill
1 setlinewidth
solid
0 0 0 edgecolor
newpath 233.6658 64.1625 moveto
232.3304 53.6521 lineto
226.82 62.7013 lineto
closepath stroke
grestore
endpage
showpage
grestore
%%PageTrailer
%%EndPage: 1
%%Trailer
%%Pages: 1
%%BoundingBox: 36 36 324 315
end
restore
%%EOF
