\relax 
\providecommand\hyper@newdestlabel[2]{}
\providecommand\HyperFirstAtBeginDocument{\AtBeginDocument}
\HyperFirstAtBeginDocument{\ifx\hyper@anchor\@undefined
\global\let\oldcontentsline\contentsline
\gdef\contentsline#1#2#3#4{\oldcontentsline{#1}{#2}{#3}}
\global\let\oldnewlabel\newlabel
\gdef\newlabel#1#2{\newlabelxx{#1}#2}
\gdef\newlabelxx#1#2#3#4#5#6{\oldnewlabel{#1}{{#2}{#3}}}
\AtEndDocument{\ifx\hyper@anchor\@undefined
\let\contentsline\oldcontentsline
\let\newlabel\oldnewlabel
\fi}
\fi}
\global\let\hyper@last\relax 
\gdef\HyperFirstAtBeginDocument#1{#1}
\providecommand\HyField@AuxAddToFields[1]{}
\providecommand\HyField@AuxAddToCoFields[2]{}
\citation{harbaugh05}
\citation{peckham14}
\citation{maxwell16}
\@writefile{toc}{\contentsline {section}{\numberline {0.1}Lessons in Mapping}{1}{section.0.1}}
\newlabel{sec:lessons}{{0.1}{1}{Lessons in Mapping}{section.0.1}{}}
\@writefile{brf}{\backcite{harbaugh05}{{1}{0.1}{section.0.1}}}
\@writefile{brf}{\backcite{peckham14}{{1}{0.1}{section.0.1}}}
\citation{luhn57}
\citation{jones72}
\citation{perl17}
\citation{zhang13}
\bibstyle{plainnat}
\bibdata{./sds-csc-paper.bib}
\@writefile{brf}{\backcite{maxwell16}{{2}{0.1}{section.0.1}}}
\@writefile{brf}{\backcite{luhn57}{{2}{0.1}{section.0.1}}}
\@writefile{brf}{\backcite{jones72}{{2}{0.1}{section.0.1}}}
\@writefile{brf}{\backcite{perl17}{{2}{0.1}{section.0.1}}}
\@writefile{brf}{\backcite{zhang13}{{2}{0.1}{section.0.1}}}
\bibcite{harbaugh05}{{1}{2005}{{Harbaugh}}{{}}}
\bibcite{jones72}{{2}{1972}{{Jones}}{{}}}
\bibcite{luhn57}{{3}{1957}{{Luhn}}{{}}}
\bibcite{maxwell16}{{4}{2016}{{Maxwell et~al.}}{{Maxwell, Kollet, Smith, Woodward, Falgout, Ferguson, Engdahl, Condon, Hector, Lopez, Gilbert, Bearup, Jefferson, Collins, de~Graaf, Pribulick, Baldwin, Bosl, Hornung, and Ashby}}}
\bibcite{peckham14}{{5}{2014}{{Peckham}}{{}}}
\bibcite{perl17}{{6}{2017}{{X.}}{{}}}
\bibcite{zhang13}{{7}{2013}{{Zhang et~al.}}{{Zhang, Govindaraju, Borchardt, Foltz, R\'{e}, and Peters}}}
\@writefile{toc}{\contentsline {chapter}{Bibliography}{3}{chapter*.2}}
\@writefile{toc}{\contentsline {chapter}{Appendices}{5}{section*.3}}
\@writefile{toc}{\contentsline {chapter}{\numberline {A}Computer Code}{6}{Appendix.1.A}}
\@writefile{lof}{\addvspace {10\p@ }}
\@writefile{lot}{\addvspace {10\p@ }}
\newlabel{ch:code}{{A}{6}{Computer Code}{Appendix.1.A}{}}
\@writefile{toc}{\contentsline {section}{\numberline {A.1}\textsc  {modflow}{}-2005 to \textsc  {ParFlow}{} Crosswalk}{6}{section.1.A.1}}
\newlabel{sec:crosswalk}{{A.1}{6}{\MODFLOW {}-2005 to \ParFlow {} Crosswalk}{section.1.A.1}{}}
\@writefile{toc}{\contentsline {section}{\numberline {A.2}{TF}-{IDF} and Cosine\nobreakspace  {}Similarity Module}{7}{section.1.A.2}}
\newlabel{sec:tfidf}{{A.2}{7}{{TF}-{IDF} and Cosine~Similarity Module}{section.1.A.2}{}}
\@writefile{toc}{\contentsline {chapter}{\numberline {B}Licenses}{11}{Appendix.1.B}}
\@writefile{lof}{\addvspace {10\p@ }}
\@writefile{lot}{\addvspace {10\p@ }}
\newlabel{ch:licenses}{{B}{11}{Licenses}{Appendix.1.B}{}}
\@writefile{toc}{\contentsline {section}{\numberline {B.1}{M}odified\nobreakspace  {}{BSD} License}{11}{section.1.B.1}}
\newlabel{sec:bsd}{{B.1}{11}{{M}odified~{BSD} License}{section.1.B.1}{}}
\@writefile{toc}{\contentsline {section}{\numberline {B.2}{C}reative\nobreakspace  {}{C}ommons {A}ttribution 4.0 {I}nternational {P}ublic\nobreakspace  {}{L}icense}{11}{section.1.B.2}}
\newlabel{sec:ccbysa}{{B.2}{11}{{C}reative~{C}ommons {A}ttribution 4.0 {I}nternational {P}ublic~{L}icense}{section.1.B.2}{}}
