\relax 
\providecommand\hyper@newdestlabel[2]{}
\providecommand\HyperFirstAtBeginDocument{\AtBeginDocument}
\HyperFirstAtBeginDocument{\ifx\hyper@anchor\@undefined
\global\let\oldcontentsline\contentsline
\gdef\contentsline#1#2#3#4{\oldcontentsline{#1}{#2}{#3}}
\global\let\oldnewlabel\newlabel
\gdef\newlabel#1#2{\newlabelxx{#1}#2}
\gdef\newlabelxx#1#2#3#4#5#6{\oldnewlabel{#1}{{#2}{#3}}}
\AtEndDocument{\ifx\hyper@anchor\@undefined
\let\contentsline\oldcontentsline
\let\newlabel\oldnewlabel
\fi}
\fi}
\global\let\hyper@last\relax 
\gdef\HyperFirstAtBeginDocument#1{#1}
\providecommand\HyField@AuxAddToFields[1]{}
\providecommand\HyField@AuxAddToCoFields[2]{}
\@writefile{toc}{\contentsline {chapter}{Abstract}{i}{Doc-Start}}
\newlabel{ch:ack}{{}{ii}{Acknowledgements}{chapter*.1}{}}
\@writefile{toc}{\contentsline {chapter}{Acknowledgements}{ii}{chapter*.1}}
\@writefile{toc}{\contentsline {paragraph}{}{ii}{chapter*.1}}
\@writefile{toc}{\contentsline {paragraph}{}{ii}{chapter*.1}}
\@writefile{toc}{\contentsline {chapter}{\numberline {1}Introduction}{1}{chapter.1}}
\@writefile{lof}{\addvspace {10\p@ }}
\@writefile{lot}{\addvspace {10\p@ }}
\newlabel{ch:intro}{{1}{1}{Introduction}{chapter.1}{}}
\citation{harbaugh05}
\citation{maxwell16}
\citation{harbaugh00}
\citation{stanko17}
\@writefile{brf}{\backcite{harbaugh05}{{2}{1}{figure.caption.3}}}
\@writefile{brf}{\backcite{maxwell16}{{2}{1}{figure.caption.3}}}
\@writefile{brf}{\backcite{harbaugh00}{{2}{1}{figure.caption.3}}}
\@writefile{brf}{\backcite{stanko17}{{2}{1}{figure.caption.3}}}
\citation{austin16}
\@writefile{lof}{\contentsline {figure}{\numberline {1.1}{\ignorespaces $O(n^2)$ -- an exemplary, fully connected point-to-point network\relax }}{3}{figure.caption.3}}
\providecommand*\caption@xref[2]{\@setref\relax\@undefined{#1}}
\newlabel{fig:p2p}{{1.1}{3}{$O(n^2)$ -- an exemplary, fully connected point-to-point network\relax }{figure.caption.3}{}}
\@writefile{lof}{\contentsline {figure}{\numberline {1.2}{\ignorespaces $O(n)$ -- a spoke-hub network with a single central node\relax }}{3}{figure.caption.3}}
\newlabel{fig:sh}{{1.2}{3}{$O(n)$ -- a spoke-hub network with a single central node\relax }{figure.caption.3}{}}
\@writefile{brf}{\backcite{austin16}{{3}{1}{figure.caption.3}}}
\citation{raymond99}
\citation{harbaugh05}
\citation{twdb17}
\citation{perl17}
\citation{harbaugh05}
\@writefile{toc}{\contentsline {chapter}{\numberline {2}Materials and Methods}{4}{chapter.2}}
\@writefile{lof}{\addvspace {10\p@ }}
\@writefile{lot}{\addvspace {10\p@ }}
\newlabel{ch:mm}{{2}{4}{Materials and Methods}{chapter.2}{}}
\@writefile{toc}{\contentsline {section}{\numberline {2.1}Failings with \textsc  {FloPerl}{}}{4}{section.2.1}}
\newlabel{sec:fail}{{2.1}{4}{Failings with \FloPerl {}}{section.2.1}{}}
\@writefile{brf}{\backcite{raymond99}{{4}{2.1}{section.2.1}}}
\@writefile{brf}{\backcite{harbaugh05}{{4}{2.1}{section.2.1}}}
\@writefile{brf}{\backcite{twdb17}{{4}{2.1}{section.2.1}}}
\@writefile{brf}{\backcite{perl17}{{4}{2.1}{section.2.1}}}
\@writefile{brf}{\backcite{harbaugh05}{{4}{2.1}{section.2.1}}}
\citation{bakker16}
\citation{white17}
\citation{tiobe17}
\citation{pypl17}
\citation{harbaugh05}
\citation{noonburg14}
\citation{isoiec14}
\@writefile{brf}{\backcite{bakker16}{{5}{2.1}{section.2.1}}}
\@writefile{brf}{\backcite{white17}{{5}{2.1}{section.2.1}}}
\@writefile{brf}{\backcite{tiobe17}{{5}{2.1}{section.2.1}}}
\@writefile{brf}{\backcite{pypl17}{{5}{2.1}{section.2.1}}}
\@writefile{toc}{\contentsline {section}{\numberline {2.2}Towards Efficient Conversion Input/Output}{5}{section.2.2}}
\newlabel{sec:towards}{{2.2}{5}{Towards Efficient Conversion Input/Output}{section.2.2}{}}
\@writefile{brf}{\backcite{harbaugh05}{{5}{2.2}{section.2.2}}}
\citation{luhn57}
\citation{jones72}
\@writefile{brf}{\backcite{noonburg14}{{6}{2.2}{section.2.2}}}
\@writefile{brf}{\backcite{isoiec14}{{6}{2.2}{section.2.2}}}
\newlabel{eq:tf}{{2.1}{6}{}{equation.2.2.1}{}}
\newlabel{eq:idf}{{2.2}{6}{}{equation.2.2.2}{}}
\@writefile{brf}{\backcite{luhn57}{{6}{2.2}{equation.2.2.2}}}
\citation{asa63}
\citation{harbaugh00}
\citation{twdb17}
\@writefile{brf}{\backcite{jones72}{{7}{2.2}{equation.2.2.2}}}
\newlabel{eq:tfidf}{{2.3}{7}{}{equation.2.2.3}{}}
\newlabel{eq:cossim}{{2.4}{7}{}{equation.2.2.4}{}}
\@writefile{brf}{\backcite{asa63}{{7}{2.2}{equation.2.2.4}}}
\@writefile{toc}{\contentsline {section}{\numberline {2.3}A Step-Back -- Limitations in the Original Converters}{7}{section.2.3}}
\newlabel{sec:back}{{2.3}{7}{A Step-Back -- Limitations in the Original Converters}{section.2.3}{}}
\citation{gnu16}
\@writefile{brf}{\backcite{harbaugh00}{{8}{2.3}{section.2.3}}}
\@writefile{brf}{\backcite{twdb17}{{8}{2.3}{section.2.3}}}
\@writefile{toc}{\contentsline {section}{\numberline {2.4}A Workflow -- Up-Conversion of Legacy Models}{8}{section.2.4}}
\newlabel{sec:workflow}{{2.4}{8}{A Workflow -- Up-Conversion of Legacy Models}{section.2.4}{}}
\@writefile{brf}{\backcite{gnu16}{{8}{2.4}{section.2.4}}}
\citation{twdb17}
\@writefile{toc}{\contentsline {chapter}{\numberline {3}Results}{10}{chapter.3}}
\@writefile{lof}{\addvspace {10\p@ }}
\@writefile{lot}{\addvspace {10\p@ }}
\newlabel{ch:res}{{3}{10}{Results}{chapter.3}{}}
\@writefile{brf}{\backcite{twdb17}{{11}{3}{chapter.3}}}
\@writefile{toc}{\contentsline {chapter}{\numberline {4}Discussion}{12}{chapter.4}}
\@writefile{lof}{\addvspace {10\p@ }}
\@writefile{lot}{\addvspace {10\p@ }}
\newlabel{ch:disc}{{4}{12}{Discussion}{chapter.4}{}}
\bibstyle{plainnat}
\bibdata{./sds-csc-paper.bib}
\bibcite{bakker16}{{1}{2016}{{Bakker et~al.}}{{Bakker, Post, Langevin, Hughes, White, Starn, and Fienen}}}
\bibcite{pypl17}{{2}{2017}{{Carbonnelle}}{{}}}
\bibcite{harbaugh05}{{3}{2005}{{Harbaugh}}{{}}}
\bibcite{harbaugh00}{{4}{2000}{{Harbaugh et~al.}}{{Harbaugh, Banta, Hill, and McDonald}}}
\bibcite{isoiec14}{{5}{2014}{{Higginbottom and Rajchel}}{{}}}
\bibcite{jones72}{{6}{1972}{{Jones}}{{}}}
\bibcite{austin16}{{7}{2016}{{Josey and Fox}}{{}}}
\bibcite{luhn57}{{8}{1957}{{Luhn}}{{}}}
\bibcite{maxwell16}{{9}{2016}{{Maxwell et~al.}}{{Maxwell, Kollet, Smith, Woodward, Falgout, Ferguson, Engdahl, Condon, Hector, Lopez, Gilbert, Bearup, Jefferson, Collins, de~Graaf, Pribulick, Baldwin, Bosl, Hornung, and Ashby}}}
\@writefile{toc}{\contentsline {chapter}{Literature Cited}{14}{chapter*.4}}
\bibcite{noonburg14}{{10}{2014}{{Noonburg}}{{}}}
\bibcite{asa63}{{11}{1963}{{Phillips and Utman}}{{}}}
\bibcite{gnu16}{{12}{2016}{{Ramey}}{{}}}
\bibcite{raymond99}{{13}{1999}{{Raymond}}{{}}}
\bibcite{stanko17}{{14}{2017}{{Stanko}}{{}}}
\bibcite{twdb17}{{15}{2017}{{{T}exas {W}ater~{D}evelopment {B}oard}}{{}}}
\bibcite{tiobe17}{{16}{2017}{{TIOBE}}{{}}}
\bibcite{white17}{{17}{2017}{{White}}{{}}}
\bibcite{perl17}{{18}{2017}{{X.}}{{}}}
\newlabel{ch:refl}{{4}{16}{Reflection}{chapter*.5}{}}
\@writefile{toc}{\contentsline {chapter}{Reflection}{16}{chapter*.5}}
\@writefile{toc}{\contentsline {chapter}{Appendices}{17}{section*.6}}
\@writefile{toc}{\contentsline {chapter}{\numberline {A}Computer Code}{18}{Appendix.1.A}}
\@writefile{lof}{\addvspace {10\p@ }}
\@writefile{lot}{\addvspace {10\p@ }}
\newlabel{ch:code}{{A}{18}{Computer Code}{Appendix.1.A}{}}
\@writefile{toc}{\contentsline {section}{\numberline {A.1}\textsc  {modflow}{} Up-Conversion}{18}{section.1.A.1}}
\newlabel{sec:mod2mod}{{A.1}{18}{\MODFLOW {} Up-Conversion}{section.1.A.1}{}}
\@writefile{toc}{\contentsline {subsection}{\numberline {A.1.1}Workflow}{18}{subsection.1.A.1.1}}
\newlabel{subsec:wf}{{A.1.1}{18}{Workflow}{subsection.1.A.1.1}{}}
\@writefile{toc}{\contentsline {subsubsection}{\numberline {A.1.1.1}ZIP Archive Unnesting}{21}{subsubsection.1.A.1.1.1}}
\@writefile{toc}{\contentsline {subsubsection}{\numberline {A.1.1.2}Up-Conversion and Simulation}{22}{subsubsection.1.A.1.1.2}}
\@writefile{toc}{\contentsline {subsection}{\numberline {A.1.2}Patches}{23}{subsection.1.A.1.2}}
\newlabel{subsec:ptch}{{A.1.2}{23}{Patches}{subsection.1.A.1.2}{}}
\@writefile{toc}{\contentsline {subsubsection}{\numberline {A.1.2.1}\textsc  {modflow}{}-96 to -2000 -- Without HFB}{23}{subsubsection.1.A.1.2.1}}
\@writefile{toc}{\contentsline {subsubsection}{\numberline {A.1.2.2}\textsc  {modflow}{}-96 to -2000 -- With HFB}{30}{subsubsection.1.A.1.2.2}}
\@writefile{toc}{\contentsline {subsubsection}{\numberline {A.1.2.3}\textsc  {modflow}{}-2000 to -2005}{43}{subsubsection.1.A.1.2.3}}
\@writefile{toc}{\contentsline {section}{\numberline {A.2}\textsc  {modflow}{}-2005 to \textsc  {ParFlow}{} Conversion}{43}{section.1.A.2}}
\newlabel{sec:mod2par}{{A.2}{43}{\MODFLOW {}-2005 to \ParFlow {} Conversion}{section.1.A.2}{}}
\@writefile{toc}{\contentsline {subsection}{\numberline {A.2.1}\textsc  {modflow}{}-2005 Input Modules}{43}{subsection.1.A.2.1}}
\newlabel{subsec:input}{{A.2.1}{43}{\MODFLOW {}-2005 Input Modules}{subsection.1.A.2.1}{}}
\@writefile{toc}{\contentsline {subsection}{\numberline {A.2.2}\textsc  {modflow}{}-2005 to \textsc  {ParFlow}{} Crosswalk}{50}{subsection.1.A.2.2}}
\newlabel{subsec:cross}{{A.2.2}{50}{\MODFLOW {}-2005 to \ParFlow {} Crosswalk}{subsection.1.A.2.2}{}}
\@writefile{toc}{\contentsline {subsubsection}{\numberline {A.2.2.1}TF-IDF and Cosine Similarity Module}{51}{subsubsection.1.A.2.2.1}}
\@writefile{toc}{\contentsline {subsection}{\numberline {A.2.3}\textsc  {ParFlow}{} Output Modules}{54}{subsection.1.A.2.3}}
\newlabel{subsec:output}{{A.2.3}{54}{\ParFlow {} Output Modules}{subsection.1.A.2.3}{}}
\@writefile{toc}{\contentsline {subsection}{\numberline {A.2.4}\textsc  {FloPerl}{}}{79}{subsection.1.A.2.4}}
\newlabel{subsec:fp}{{A.2.4}{79}{\FloPerl {}}{subsection.1.A.2.4}{}}
\@writefile{toc}{\contentsline {subsubsection}{\numberline {A.2.4.1}Two-Dimensional Integer Array Reader}{90}{subsubsection.1.A.2.4.1}}
\@writefile{toc}{\contentsline {subsubsection}{\numberline {A.2.4.2}Real Array Reader}{94}{subsubsection.1.A.2.4.2}}
\@writefile{toc}{\contentsline {subsubsection}{\numberline {A.2.4.3}Miscellaneous Subroutines}{98}{subsubsection.1.A.2.4.3}}
\@writefile{toc}{\contentsline {chapter}{\numberline {B}Licenses}{99}{Appendix.1.B}}
\@writefile{lof}{\addvspace {10\p@ }}
\@writefile{lot}{\addvspace {10\p@ }}
\newlabel{ch:lic}{{B}{99}{Licenses}{Appendix.1.B}{}}
\@writefile{toc}{\contentsline {section}{\numberline {B.1}{M}odified\nobreakspace  {}{BSD}\nobreakspace  {}{L}icense}{99}{section.1.B.1}}
\newlabel{sec:bsd}{{B.1}{99}{{M}odified~{BSD}~{L}icense}{section.1.B.1}{}}
\@writefile{toc}{\contentsline {section}{\numberline {B.2}{C}reative\nobreakspace  {}{C}ommons Attribution 4.0 International {P}ublic\nobreakspace  {}{L}icense}{99}{section.1.B.2}}
\newlabel{sec:ccbysa}{{B.2}{99}{{C}reative~{C}ommons Attribution 4.0 International {P}ublic~{L}icense}{section.1.B.2}{}}
